사망교통사고 정보 분석 및 시각화
…
사고전체로 보았을 때는 주로 기타단일로, 교차로내, 교차로부근 순서로
많이 일어났다.

3.4 분석 4. 교통사고 사고 유형에 따른 사망자, 부상자 비교 분석을
통한 관계성 파악

tmp3 <- traffic_accident %>% group_by(`사고유형`) %>% 
  summarise(사망자수 = sum(사망자수), 부상자수 = sum(부상자수)) %>% 
  pivot_longer(c(`사망자수`, `부상자수`), names_to = "type", values_to ="n")
tmp3

## # A tibble: 44 × 3
##    사고유형             type         n
##    <chr>                <chr>    <dbl>
##  1 경보기 무시          사망자수     1
##  2 경보기 무시          부상자수     1
##  3 공작물충돌           사망자수  3705
##  4 공작물충돌           부상자수  5173
##  5 기타                 사망자수  8759
##  6 기타                 부상자수 12650
##  7 길가장자리구역통행중 사망자수   680
##  8 길가장자리구역통행중 부상자수   760
##  9 도로이탈 기타        사망자수   318
## 10 도로이탈 기타        부상자수   437
## # … with 34 more rows
…
